Contador_VL/simulation/qsim/Contador_VL.msim.vcd
$comment
	File created using the following command:
		vcd file Contador_VL.msim.vcd -direction
$end
$date
	Tue Nov 22 14:53:48 2016
$end
$version
	ModelSim Version 10.4d
$end
$timescale
	1ps
$end

$scope module Contador_VL_vlg_vec_tst $end
$var reg 1 ! clock $end
$var reg 1 " reset $end
$var wire 1 # out [3] $end
$var wire 1 $ out [2] $end
$var wire 1 % out [1] $end
$var wire 1 & out [0] $end

$scope module i1 $end
$var wire 1 ' gnd $end
$var wire 1 ( vcc $end
$var wire 1 ) unknown $end
$var tri1 1 * devclrn $end
$var tri1 1 + devpor $end
$var tri1 1 , devoe $end
$var wire 1 - out[0]~output_o $end
$var wire 1 . out[1]~output_o $end
$var wire 1 / out[2]~output_o $end
$var wire 1 0 out[3]~output_o $end
$var wire 1 1 clock~input_o $end
$var wire 1 2 clock~inputclkctrl_outclk $end
$var wire 1 3 out[0]~11_combout $end
$var wire 1 4 reset~input_o $end
$var wire 1 5 reset~inputclkctrl_outclk $end
$var wire 1 6 out[0]~reg0_q $end
$var wire 1 7 out[1]~4_cout $end
$var wire 1 8 out[1]~6 $end
$var wire 1 9 out[2]~7_combout $end
$var wire 1 : out[2]~reg0_q $end
$var wire 1 ; out[2]~8 $end
$var wire 1 < out[3]~9_combout $end
$var wire 1 = out[3]~reg0_q $end
$var wire 1 > cont~0_combout $end
$var wire 1 ? cont~1_combout $end
$var wire 1 @ cont~q $end
$var wire 1 A Add0~0_combout $end
$var wire 1 B Add0~1_combout $end
$var wire 1 C out[1]~5_combout $end
$var wire 1 D out[1]~reg0_q $end
$upscope $end
$upscope $end
$enddefinitions $end
#0
$dumpvars
0!
0"
0&
0%
0$
0#
0'
1(
x)
1*
1+
1,
0-
0.
0/
00
01
02
13
04
05
06
07
18
09
0:
0;
0<
0=
0>
0?
0@
0A
0B
0C
0D
$end
#5000
1!
11
12
16
1-
17
1&
03
1C
#10000
0!
01
02
#15000
1!
11
12
1D
06
0-
1.
08
07
1%
0&
0C
13
18
19
1C
09
#20000
0!
01
02
#25000
1!
11
12
16
1-
17
1&
03
08
0C
19
#30000
0!
01
02
#35000
1!
11
12
0D
1:
06
0-
1/
0.
1>
18
1;
07
0%
1$
0&
1C
09
13
0;
19
1<
0C
0<
#40000
0!
01
02
#45000
1!
11
12
16
1-
17
1&
03
1C
#50000
0!
01
02
#55000
1!
11
12
1D
06
0-
1.
0>
08
07
1%
0&
0C
13
1;
18
09
1C
0;
1<
19
0<
#60000
0!
01
02
#65000
1!
11
12
16
1-
17
1&
03
08
0C
1;
09
1<
#70000
0!
01
02
#75000
1!
11
12
0D
1=
0:
06
0-
0/
10
0.
1>
18
0;
07
0%
1#
0$
0&
1C
0<
19
13
09
1<
0C
#80000
0!
01
02
#85000
1!
11
12
16
1-
17
1&
03
1C
#90000
0!
01
02
#95000
1!
11
12
1D
06
0-
1.
1A
0>
08
07
1%
0&
0C
13
18
19
1C
09
#100000
0!
01
02
#105000
1!
11
12
16
1-
17
1&
03
08
0C
19
#110000
0!
01
02
#115000
1!
11
12
0D
1:
06
0-
1/
0.
0A
1>
18
1;
07
0%
1$
0&
1C
09
13
0;
19
0<
0C
1<
#120000
0!
01
02
#125000
1!
11
12
16
1-
17
1&
03
1C
#130000
0!
01
02
#135000
1!
11
12
1D
06
0-
1.
1A
08
07
1%
0&
0C
13
1;
18
09
1C
0;
0<
19
1<
#140000
0!
01
02
#145000
1!
11
12
16
1-
1B
17
1&
1?
03
1;
08
0<
09
1<
19
#150000
0!
01
02
#155000
1!
11
12
1@
06
0-
07
0&
13
0C
#160000
0!
01
02
#165000
1!
11
12
0D
16
1-
0.
0A
18
17
0%
1&
1C
03
08
09
0C
19
#170000
0!
01
02
#175000
1!
11
12
06
0-
07
0&
13
18
1C
09
#180000
0!
01
02
#185000
1!
11
12
1D
0:
16
1-
0/
1.
1A
0>
08
0;
17
1%
0$
1&
0C
19
03
1;
09
0<
1C
1<
#190000
0!
01
02
#195000
1!
11
12
06
0-
07
0&
13
0C
#200000
0!
01
02
#205000
1!
11
12
0D
16
1-
0.
0A
1>
18
17
0%
1&
0?
1C
03
0;
08
1?
19
0C
1;
0<
09
1<
#210000
0!
01
02
#215000
1!
11
12
06
0-
07
0&
13
18
1C
0;
19
0<
#220000
0!
01
02
#225000
1!
11
12
1D
0=
1:
16
1-
1/
00
1.
0>
08
1;
17
1%
0#
1$
1&
0C
1<
09
03
19
0<
1C
#230000
0!
01
02
#235000
1!
11
12
06
0-
07
0&
13
0C
#240000
0!
01
02
#245000
1!
11
12
0D
16
1-
0.
1>
18
17
0%
1&
0?
1C
03
08
1?
09
0C
19
#250000
0!
01
02
#255000
1!
11
12
06
0-
07
0&
13
18
1C
09
#260000
0!
01
02
#265000
1!
11
12
1D
0:
16
1-
0/
1.
0>
08
0;
17
1%
0$
1&
0C
19
03
1;
09
1<
1C
0<
#270000
0!
01
02
#275000
1!
11
12
06
0-
07
0&
13
0C
#280000
0!
01
02
#285000
1!
11
12
0D
16
1-
0.
18
17
0%
1&
0?
1C
03
0;
08
19
0C
1;
1<
09
0<
#290000
0!
01
02
#295000
1!
11
12
0@
06
0-
0B
07
0&
13
0;
18
1<
19
0<
09
#300000
0!
01
02
#305000
1!
11
12
16
1-
17
1&
03
1C
#310000
0!
01
02
#315000
1!
11
12
1D
06
0-
1.
08
07
1%
0&
0C
13
18
19
1C
09
#320000
0!
01
02
#325000
1!
11
12
16
1-
17
1&
03
08
0C
19
#330000
0!
01
02
#335000
1!
11
12
0D
1:
06
0-
1/
0.
1>
18
1;
07
0%
1$
0&
1C
09
13
0;
19
1<
0C
0<
#340000
0!
01
02
#345000
1!
11
12
16
1-
17
1&
03
1C
#350000
0!
01
02
#355000
1!
11
12
1D
06
0-
1.
0>
08
07
1%
0&
0C
13
1;
18
09
1C
0;
1<
19
0<
#360000
0!
01
02
#365000
1!
11
12
16
1-
17
1&
03
08
0C
1;
09
1<
#370000
0!
01
02
#375000
1!
11
12
0D
1=
0:
06
0-
0/
10
0.
1>
18
0;
07
0%
1#
0$
0&
1C
0<
19
13
09
1<
0C
#380000
0!
01
02
#385000
1!
11
12
16
1-
17
1&
03
1C
#390000
0!
01
02
#395000
1!
11
12
1D
06
0-
1.
1A
0>
08
07
1%
0&
0C
13
18
19
1C
09
