Contador_VL_2/simulation/qsim/Contador_VL_2.msim.vcd
$comment
	File created using the following command:
		vcd file Contador_VL_2.msim.vcd -direction
$end
$date
	Tue Nov 22 14:35:59 2016
$end
$version
	ModelSim Version 10.4d
$end
$timescale
	1ps
$end

$scope module contador_VL_2_vlg_vec_tst $end
$var reg 1 ! clear $end
$var reg 1 " cp $end
$var wire 1 # out [3] $end
$var wire 1 $ out [2] $end
$var wire 1 % out [1] $end
$var wire 1 & out [0] $end

$scope module i1 $end
$var wire 1 ' gnd $end
$var wire 1 ( vcc $end
$var wire 1 ) unknown $end
$var tri1 1 * devclrn $end
$var tri1 1 + devpor $end
$var tri1 1 , devoe $end
$var wire 1 - out[0]~output_o $end
$var wire 1 . out[1]~output_o $end
$var wire 1 / out[2]~output_o $end
$var wire 1 0 out[3]~output_o $end
$var wire 1 1 cp~input_o $end
$var wire 1 2 cp~inputclkctrl_outclk $end
$var wire 1 3 out[1]~7_cout $end
$var wire 1 4 out[1]~8_combout $end
$var wire 1 5 clear~input_o $end
$var wire 1 6 clear~inputclkctrl_outclk $end
$var wire 1 7 out[2]~12 $end
$var wire 1 8 out[3]~13_combout $end
$var wire 1 9 out[3]~reg0_q $end
$var wire 1 : out~4_combout $end
$var wire 1 ; out~10_combout $end
$var wire 1 < out[1]~reg0_q $end
$var wire 1 = out[1]~9 $end
$var wire 1 > out[2]~11_combout $end
$var wire 1 ? out[2]~reg0_q $end
$var wire 1 @ out~3_combout $end
$var wire 1 A count~0_combout $end
$var wire 1 B count~q $end
$var wire 1 C out[0]~5_combout $end
$var wire 1 D out[0]~reg0_q $end
$upscope $end
$upscope $end
$enddefinitions $end
#0
$dumpvars
0!
0"
0&
0%
0$
0#
0'
1(
x)
1*
1+
1,
0-
0.
0/
00
01
02
03
14
05
06
07
18
09
0:
0;
0<
1=
1>
0?
1@
1A
0B
0C
0D
$end
#5000
1"
11
12
1B
1;
1C
08
0>
04
#10000
0"
01
02
#15000
1"
11
12
1D
1-
0@
13
1&
0C
14
#20000
0"
01
02
#25000
1"
11
12
0D
1<
1.
0-
03
0=
0&
1%
1C
04
1=
14
1>
0>
#30000
0"
01
02
#35000
1"
11
12
1D
1-
13
1&
0C
0=
04
1>
#40000
0"
01
02
#45000
1"
11
12
0D
1?
0<
0.
1/
0-
03
17
1=
0&
1$
0%
1C
0>
14
07
04
18
1>
08
#50000
0"
01
02
#55000
1"
11
12
1D
1-
13
1&
0C
14
#60000
0"
01
02
#65000
1"
11
12
0D
1<
1.
0-
03
0=
0&
1%
1C
04
1=
17
14
0>
07
1>
18
08
#70000
0"
01
02
#75000
1"
11
12
1D
1-
13
1&
0C
0=
04
17
0>
18
#80000
0"
01
02
#85000
1"
11
12
0D
0?
0<
19
10
0.
0/
0-
03
07
1=
0&
0$
0%
1#
1C
1>
14
08
04
18
0>
#90000
0"
01
02
#95000
1"
11
12
1D
1-
13
1&
0C
14
#100000
0"
01
02
#105000
1"
11
12
0D
1<
1.
0-
03
0=
0&
1%
1C
04
1=
14
1>
0>
#110000
0"
01
02
#115000
1"
11
12
1D
1-
13
1&
0C
0=
04
1>
#120000
0"
01
02
#125000
1"
11
12
0D
1?
0<
0.
1/
0-
03
17
1=
0&
1$
0%
1C
0>
14
07
04
08
1>
18
#130000
0"
01
02
#135000
1"
11
12
1D
1-
13
1&
0C
14
#140000
0"
01
02
#145000
1"
11
12
0D
1<
1.
0-
03
0=
0&
1%
1C
04
1=
17
14
0>
07
1>
08
18
#150000
0"
01
02
#155000
1"
11
12
1D
1-
1:
13
1&
0C
0;
0=
1C
0A
04
17
0>
08
#160000
0"
01
02
#165000
1"
11
12
0B
1;
0C
18
1>
14
#170000
0"
01
02
#175000
1"
11
12
0D
0-
0:
03
0&
1C
04
#180000
0"
01
02
#185000
1"
11
12
1D
0<
0.
1-
13
1=
1&
0%
0C
14
0=
04
0>
1>
#190000
0"
01
02
#195000
1"
11
12
0D
0-
03
0&
1C
1=
14
0>
#200000
0"
01
02
#205000
1"
11
12
1D
0?
1<
1.
0/
1-
13
07
0=
1&
0$
1%
0C
1>
04
17
14
08
0>
18
#210000
0"
01
02
#215000
1"
11
12
0D
0-
03
0&
1C
04
#220000
0"
01
02
#225000
1"
11
12
1D
0<
0.
1-
13
1=
1&
0%
0C
14
0=
07
04
1>
17
0>
08
18
#230000
0"
01
02
#235000
1"
11
12
0D
0-
03
0&
1C
1=
14
07
1>
08
#240000
0"
01
02
#245000
1"
11
12
1D
1?
1<
09
00
1.
1/
1-
13
17
0=
1&
1$
1%
0#
0C
0>
04
18
14
08
1>
#250000
0"
01
02
#255000
1"
11
12
0D
0-
03
0&
1C
04
#260000
0"
01
02
#265000
1"
11
12
1D
0<
0.
1-
13
1=
1&
0%
0C
14
0=
04
0>
1>
#270000
0"
01
02
#275000
1"
11
12
0D
0-
03
0&
1C
1=
14
0>
#280000
0"
01
02
#285000
1"
11
12
1D
0?
1<
1.
0/
1-
13
07
0=
1&
0$
1%
0C
1>
04
17
14
18
0>
08
#290000
0"
01
02
#295000
1"
11
12
0D
0-
03
0&
1C
04
#300000
0"
01
02
#305000
1"
11
12
1D
0<
0.
1-
13
1=
1&
0%
0C
14
0=
07
04
1>
17
0>
18
08
#310000
0"
01
02
#315000
1"
11
12
0D
0-
1@
03
0&
1C
0;
1=
0C
1A
14
07
1>
18
#320000
0"
01
02
#325000
1"
11
12
1B
1;
1C
08
0>
04
#330000
0"
01
02
#335000
1"
11
12
1D
1-
0@
13
1&
0C
14
#340000
0"
01
02
#345000
1"
11
12
0D
1<
1.
0-
03
0=
0&
1%
1C
04
1=
14
1>
0>
#350000
0"
01
02
#355000
1"
11
12
1D
1-
13
1&
0C
0=
04
1>
#360000
0"
01
02
#365000
1"
11
12
0D
1?
0<
0.
1/
0-
03
17
1=
0&
1$
0%
1C
0>
14
07
04
18
1>
08
#370000
0"
01
02
#375000
1"
11
12
1D
1-
13
1&
0C
14
#380000
0"
01
02
#385000
1"
11
12
0D
1<
1.
0-
03
0=
0&
1%
1C
04
1=
17
14
0>
07
1>
18
08
#390000
0"
01
02
#395000
1"
11
12
1D
1-
13
1&
0C
0=
04
17
0>
18
